{"response":{"status":"ok","userTier":"developer","total":170918,"startIndex":1,"pageSize":10,"currentPage":1,"pages":17092,"edition":{"id":"world","webTitle":"World news","webUrl":"https://www.theguardian.com/world","apiUrl":"https://content.guardianapis.com/world","code":"default"},"section":{"id":"world","webTitle":"World news","webUrl":"https://www.theguardian.com/world","apiUrl":"https://content.guardianapis.com/world","editions":[{"id":"world","webTitle":"World news","webUrl":"https://www.theguardian.com/world","apiUrl":"https://content.guardianapis.com/world","code":"default"}]},"results":[{"id":"world/2017/apr/16/tackling-racism-and-working-class-insults","type":"article","sectionId":"world","sectionName":"World news","webPublicationDate":"2017-04-16T17:32:07Z","webTitle":"Tackling racism and working-class insults | Letters","webUrl":"https://www.theguardian.com/world/2017/apr/16/tackling-racism-and-working-class-insults","apiUrl":"https://content.guardianapis.com/world/2017/apr/16/tackling-racism-and-working-class-insults","fields":{"trailText":"<strong>Letters: </strong>I deplore racism, but I&nbsp;equally deplore the pillorying of the working class, which Evertonians endure at so many matches"},"isHosted":false},{"id":"world/2017/apr/16/a-rocky-approach-to-gibraltars-sovereignty","type":"article","sectionId":"world","sectionName":"World news","webPublicationDate":"2017-04-16T17:31:35Z","webTitle":"A rocky approach to Gibraltar’s sovereignty | Letters","webUrl":"https://www.theguardian.com/world/2017/apr/16/a-rocky-approach-to-gibraltars-sovereignty","apiUrl":"https://content.guardianapis.com/world/2017/apr/16/a-rocky-approach-to-gibraltars-sovereignty","fields":{"trailText":"<strong>Letters:</strong> The Spanish government could be persuaded to support an illegal war, but it was never going to accept a deal over Gibraltar that did not lead to full Spanish sovereignty"},"isHosted":false},{"id":"world/2017/apr/16/violence-in-darfur-today-is-much-reduced","type":"article","sectionId":"world","sectionName":"World news","webPublicationDate":"2017-04-16T17:31:14Z","webTitle":"Violence in Darfur today is much reduced | Letters","webUrl":"https://www.theguardian.com/world/2017/apr/16/violence-in-darfur-today-is-much-reduced","apiUrl":"https://content.guardianapis.com/world/2017/apr/16/violence-in-darfur-today-is-much-reduced","fields":{"trailText":"<strong>Letters:</strong> Mr Cox entered Sudan illegally with the help of smugglers (who are invariably involved in drugs, weapons and human trafficking)"},"isHosted":false},{"id":"world/2017/apr/16/home-secretary-urged-revoke-asma-al-assad-british-citizenship","type":"article","sectionId":"world","sectionName":"World news","webPublicationDate":"2017-04-16T17:18:31Z","webTitle":"Home secretary urged to revoke Asma al-Assad's British citizenship","webUrl":"https://www.theguardian.com/world/2017/apr/16/home-secretary-urged-revoke-asma-al-assad-british-citizenship","apiUrl":"https://content.guardianapis.com/world/2017/apr/16/home-secretary-urged-revoke-asma-al-assad-british-citizenship","fields":{"trailText":"Liberal Democrats write to Amber Rudd after British-born wife of Syrian president uses social media to support his regime"},"isHosted":false},{"id":"world/2017/apr/16/north-korea-donald-trump-china-south-korea","type":"article","sectionId":"world","sectionName":"World news","webPublicationDate":"2017-04-16T16:30:43Z","webTitle":"US officials warn tensions with North Korea are 'coming to a head'","webUrl":"https://www.theguardian.com/world/2017/apr/16/north-korea-donald-trump-china-south-korea","apiUrl":"https://content.guardianapis.com/world/2017/apr/16/north-korea-donald-trump-china-south-korea","fields":{"trailText":"US national security adviser pushes for peaceful resolution after country’s failed missile test, as Donald Trump hopes for Chinese intervention"},"isHosted":false},{"id":"world/2017/apr/16/iran-hassan-rouhani-face-tough-re-election-race-as-candidate-list-closes","type":"article","sectionId":"world","sectionName":"World news","webPublicationDate":"2017-04-16T16:06:09Z","webTitle":"Hassan Rouhani faces tough re-election race as candidate list closes","webUrl":"https://www.theguardian.com/world/2017/apr/16/iran-hassan-rouhani-face-tough-re-election-race-as-candidate-list-closes","apiUrl":"https://content.guardianapis.com/world/2017/apr/16/iran-hassan-rouhani-face-tough-re-election-race-as-candidate-list-closes","fields":{"trailText":"Iran’s moderate president will have to see off various heavyweight conservative critics of his nuclear deal with the west"},"isHosted":false}]}}